Data Exploration Assignment - Econometrics
…
# Import ID Scorecard data to match colleges with data
ID_data <- import("Lab3_Rawdata\\id_name_link.csv")

# Check for any duplicate 'schnames' in ID_data
schname_duplicates <- ID_data %>%
  group_by(schname) %>%
  summarize(count = n()) %>%
  filter(count >=2)
print(schname_duplicates)

# A tibble: 32 × 2
   schname                            count
   <chr>                              <int>
 1 american university of puerto rico     2
 2 anderson university                    2
 3 aquinas college                        2
 4 augustana college                      2
 5 bethany college                        2
 6 bethel university                      2
 7 blue ridge community college           2
 8 bradford school                        2
 9 bryan university                       5
10 california college san diego           3
# ℹ 22 more rows
…
